<svg xmlns="http://www.w3.org/2000/svg" width="73.55" height="58.31" viewBox="0 0 73.55 58.31">
  <g id="Group_27" data-name="Group 27" transform="translate(-366.226 -374.873)">
    <path id="Path_30" data-name="Path 30" d="M372.559,423.615l10.539-6.152c-1.4-1.455-3.561-3.73-4.956-5.325l-8.8,6.444a2.666,2.666,0,0,0-.139,3.532C370.642,424.356,372.559,423.615,372.559,423.615Z" fill="#7ecb53"/>
    <path id="Path_31" data-name="Path 31" d="M376.1,397.928c.665,2.632,1.715,6.831,2.175,8.539a5.858,5.858,0,0,0,1.407,3c1.706,2.1,6.917,7.442,6.917,7.442l-5.41,11.02a2.673,2.673,0,0,0,1.429,3.295c1.678.926,3.057.482,3.732-.418l8.285-13.712a2.313,2.313,0,0,0,.06-2.2l-5.64-10.406-1.358-5.521A27.781,27.781,0,0,0,401.938,388.3c.965-1.271,1.8-3.1.9-4.174a2.625,2.625,0,0,0-3.919-.163c-6.532,6.787-11.508,7.887-16.22,6.949-8.1-1.605-10.109-8.9-11.469-13.014a2.7,2.7,0,0,0-3.659-1.678c-1.31.495-1.532,2.513-1.222,4.084A31.872,31.872,0,0,0,376.1,397.928Z" fill="#7ecb53"/>
    <path id="Path_32" data-name="Path 32" d="M384.371,374.873a7.1,7.1,0,1,0,7.1,7.093A7.093,7.093,0,0,0,384.371,374.873Z" fill="#7ecb53"/>
    <path id="Path_33" data-name="Path 33" d="M436.957,424.063a2.521,2.521,0,0,0-.131-3.343l-8.157-5.781c-1.325,1.51-3.37,3.666-4.693,5.042l9.8,5.505A2.7,2.7,0,0,0,436.957,424.063Z" fill="#7ecb53"/>
    <path id="Path_34" data-name="Path 34" d="M438.5,380.606a2.558,2.558,0,0,0-3.466,1.59c-1.288,3.9-3.2,10.8-10.86,12.325-4.462.884-9.175-.156-15.36-6.584a2.489,2.489,0,0,0-3.712.154c-.846,1.017-.061,2.751.856,3.954a26.318,26.318,0,0,0,13.484,10.1l-1.286,5.225-5.343,9.857a2.192,2.192,0,0,0,.058,2.084l7.849,12.983c.636.875,1.883,1.271,3.531.4a2.491,2.491,0,0,0,1.353-3.117l-5.121-10.435s4.935-5.053,6.551-7.048a5.543,5.543,0,0,0,1.329-2.847c.439-1.618,1.432-5.594,2.063-8.085a30.183,30.183,0,0,0,9.23-16.687C439.952,382.989,439.741,381.075,438.5,380.606Z" fill="#7ecb53"/>
    <path id="Path_35" data-name="Path 35" d="M416.01,385.97a6.741,6.741,0,1,0,6.742-6.741A6.741,6.741,0,0,0,416.01,385.97Z" fill="#7ecb53"/>
  </g>
</svg>
        